
<!DOCTYPE HTML PUBLIC "-//W3C//DTD HTML 4.01 Transitional//EN" "http://www.w3.org/TR/html4/loose.dtd">
<html>
<head>
  <title>{keyword}</title>
  <link rel="stylesheet" href="//www.flashgames247.com/css/style.css">
  <link rel="canonical" href="//www.flashgames247.com/pages/freegames.html" />
  <meta name="keywords" content="{keyword}">
  <meta name="description" content="{keyword}">  <meta name="verify-v1" content="I7/ZzqaWaZUk7voxyKGzD5XuHoOrIegd2eOX7uDCX/g=" />
   

</head>
  <body leftmargin="0" topmargin="0" marginwidth="0" marginheight="0">

  <div style="width: 940px; margin: 0 auto; position: relative; z-index: 1001; background: #fff; padding: 10px">
      <table width="100%" cellpadding="0" cellspacing="0" border="0">
        <tr>
          <td valign="bottom"> <img src="//www.flashgames247.com/images/dirtbike-logo.png" alt="Flash Games 24/7"> </td>
          <td valign="bottom" align="right">
                          <!-- Flashgames247---728BY90-TOP -->
<div id='div-gpt-ad-1331740087509-2' style='width:728px; height:90px;'>
 
</div>
                      </td>
        </tr>
      </table>
      <table id="nav_bar" cellpadding="0" cellspacing="0" border="0">
        <tr>
          <td valign="center" style="padding-left: 15px">
            
          </td>
          <td align="right" valign="center" style="padding-right: 7px">
            <form method="get" action="/search.php">
              <input type="text" class="input-text" name="terms" value="">
              <input type="submit" class="input-submit" value="Search">
            </form>
          </td>
        </tr>
      </table>
<div align="center" style="font-weight: bold; background-color: #ff0000; margin: 2px; padding: 5px; border: 1px solid #ff2323;"><h1>{keyword}</h1></div>
<table class="bluetable" cellspacing="0" cellpadding="0" width="100%">
  <tr>
    <td class="tl"></td>
    <td class="tc"></td>
    <td class="tr"></td>
  </tr>
  <tr>
    <td class="ml" rowspan="2"></td>
    <td class="title">{manytext_bing}</td>
    <td class="mr" rowspan="2"></td>
  </tr>
  <tr>
    <td class="mc">
      <table width="100%" border="0" cellspacing="0" cellpadding="0">
        <tr>
          <td align="center" width="50%">
            <!-- flashgames247-300by250-top -->
<div id='div-gpt-ad-1331740087509-3' style='width:300px; height:250px;'>
 
</div>
          </td>
          <td align="center" width="50%">
            <script type="text/javascript"><!--
            google_ad_client = "pub-2307787344838998";
            google_ad_width = 300;
            google_ad_height = 250;
            google_ad_format = "300x250_as";
            google_ad_type = "text_image";
            //2007-11-06: FG300BY250ABOVEFOLDINFOPAGE
            google_ad_channel = "0841377512";
            google_color_border = "FFFFFF";
            google_color_bg = "FFFFFF";
            google_color_link = "0000FF";
            google_color_text = "000000";
            google_color_url = "008000";
            //-->
            </script>
            <script type="text/javascript"
              src="https://pagead2.googlesyndication.com/pagead/show_ads.js">
            </script>
          {manytext_bing}</td>
        </tr>
      </table>

      <table cellspacing="0" cellpadding="0" border="0" width="95%" align="center">
        <tr>
          <td align="center" valign="top" style="padding-bottom: 10px; width: 20%;"></td>	 
          <td align="center" valign="top" style="padding-bottom: 10px; width: 20%;">&nbsp;</td>	 
          <td align="center" valign="top" style="padding-bottom: 10px; width: 20%;">&nbsp;</td>	 
          <td align="center" valign="top" style="padding-bottom: 10px; width: 20%;">&nbsp;</td>	 	
          <td align="center" valign="top" style="padding-bottom: 10px; width: 20%;">
            
            </td>	
        </tr>
        <tr>
          <td align="center" valign="top" style="padding-bottom: 10px; width: 20%;">&nbsp;</td>	
          <td align="center" valign="top" style="padding-bottom: 10px; width: 20%;">&nbsp;</td>		
          <td align="center" valign="top" style="padding-bottom: 10px; width: 20%;">&nbsp;</td>
          <td align="center" valign="top" style="padding-bottom: 10px; width: 20%;">&nbsp;</td>			
        </tr>
		<tr>
          <td align="center" valign="top" style="padding-bottom: 10px; width: 20%;">&nbsp;</td>
          <td align="center" valign="top" style="padding-bottom: 10px; width: 20%;">&nbsp;</td>
          <td align="center" valign="top" style="padding-bottom: 10px; width: 20%;">&nbsp;</td>
          <td align="center" valign="top" style="padding-bottom: 10px; width: 20%;">&nbsp;</td>
        </tr>
        <tr>     
          <td align="center" valign="top" style="padding-bottom: 10px; width: 20%;">&nbsp;</td>		
          <td align="center" valign="top" style="padding-bottom: 10px; width: 20%;">&nbsp;</td>    
          <td align="center" valign="top" style="padding-bottom: 10px; width: 20%;">&nbsp;</td>
          <td align="center" valign="top" style="padding-bottom: 10px; width: 20%;">&nbsp;</td>
        </tr>
        <tr>         
          <td align="center" valign="top" style="padding-bottom: 10px; width: 20%;">&nbsp;</td>
          <td align="center" valign="top" style="padding-bottom: 10px; width: 20%;">&nbsp;</td>        
          <td align="center" valign="top" style="padding-bottom: 10px; width: 20%;">&nbsp;</td>
          <td align="center" valign="top" style="padding-bottom: 10px; width: 20%;">&nbsp;</td>
        </tr>
        <tr>       
          <td align="center" valign="top" style="padding-bottom: 10px; width: 20%;">&nbsp;</td>
          <td align="center" valign="top" style="padding-bottom: 10px; width: 20%;">&nbsp;</td>
          <td align="center" valign="top" style="padding-bottom: 10px; width: 20%;">&nbsp;</td>
          <td align="center" valign="top" style="padding-bottom: 10px; width: 20%;">&nbsp;</td>
        </tr>
		<tr>        
          <td align="center" valign="top" style="padding-bottom: 10px; width: 20%;">&nbsp;</td>
          <td align="center" valign="top" style="padding-bottom: 10px; width: 20%;">&nbsp;</td>
          <td align="center" valign="top" style="padding-bottom: 10px; width: 20%;">&nbsp;</td>		  
          <td align="center" valign="top" style="padding-bottom: 10px; width: 20%;">&nbsp;</td>	
        </tr>
        <tr>
          <td align="center" valign="top" style="padding-bottom: 10px; width: 20%;">&nbsp;</td>
          <td align="center" valign="top" style="padding-bottom: 10px; width: 20%;">&nbsp;</td>
          <td align="center" valign="top" style="padding-bottom: 10px; width: 20%;">&nbsp;</td>
          <td align="center" valign="top" style="padding-bottom: 10px; width: 20%;">&nbsp;</td>
        </tr>
	    <tr>
          <td align="center" valign="top" style="padding-bottom: 10px; width: 20%;">&nbsp;</td>
          <td align="center" valign="top" style="padding-bottom: 10px; width: 20%;">&nbsp;</td>
          <td align="center" valign="top" style="padding-bottom: 10px; width: 20%;">&nbsp;</td>
          <td align="center" valign="top" style="padding-bottom: 10px; width: 20%;">&nbsp;</td>
        </tr>
	    <tr>
          <td align="center" valign="top" style="padding-bottom: 10px; width: 20%;">&nbsp;</td>
          <td align="center" valign="top" style="padding-bottom: 10px; width: 20%;">&nbsp;</td>
          <td align="center" valign="top" style="padding-bottom: 10px; width: 20%;">&nbsp;</td>
          <td align="center" valign="top" style="padding-bottom: 10px; width: 20%;">&nbsp;</td>	
        </tr>
	    <tr>
          <td align="center" valign="top" style="padding-bottom: 10px; width: 20%;">&nbsp;</td>
          <td align="center" valign="top" style="padding-bottom: 10px; width: 20%;">&nbsp;</td>
          <td align="center" valign="top" style="padding-bottom: 10px; width: 20%;">&nbsp;</td>
          <td align="center" valign="top" style="padding-bottom: 10px; width: 20%;">&nbsp;</td>
        </tr>
	    <tr>
          <td align="center" valign="top" style="padding-bottom: 10px; width: 20%;">&nbsp;</td>
          <td align="center" valign="top" style="padding-bottom: 10px; width: 20%;">&nbsp;</td>      
          <td align="center" valign="top" style="padding-bottom: 10px; width: 20%;">&nbsp;</td>
          <td align="center" valign="top" style="padding-bottom: 10px; width: 20%;">&nbsp;</td>
        </tr>
        <tr>
          <td align="center" valign="top" style="padding-bottom: 10px; width: 20%;">&nbsp;</td>
          <td align="center" valign="top" style="padding-bottom: 10px; width: 20%;">&nbsp;</td>
          <td align="center" valign="top" style="padding-bottom: 10px; width: 20%;">&nbsp;</td>
          <td align="center" valign="top" style="padding-bottom: 10px; width: 20%;">&nbsp;</td>
        </tr>
	    <tr>			
          <td align="center" valign="top" style="padding-bottom: 10px; width: 20%;">&nbsp;</td>
          <td align="center" valign="top" style="padding-bottom: 10px; width: 20%;">&nbsp;</td>
          <td align="center" valign="top" style="padding-bottom: 10px; width: 20%;">&nbsp;</td>
          <td align="center" valign="top" style="padding-bottom: 10px; width: 20%;">&nbsp;</td>
        </tr>
        <tr>				
          <td align="center" valign="top" style="padding-bottom: 10px; width: 20%;">&nbsp;</td>
          <td align="center" valign="top" style="padding-bottom: 10px; width: 20%;">&nbsp;</td>
          <td align="center" valign="top" style="padding-bottom: 10px; width: 20%;">&nbsp;</td>
          <td align="center" valign="top" style="padding-bottom: 10px; width: 20%;">&nbsp;</td>
        </tr>
        <tr>
          <td align="center" valign="top" style="padding-bottom: 10p; width: 20%;">&nbsp;</td>
          <td align="center" valign="top" style="padding-bottom: 10px; width: 20%;">&nbsp;</td>
          <td align="center" valign="top" style="padding-bottom: 10px; width: 20%;">&nbsp;</td>
          <td align="center" valign="top" style="padding-bottom: 10px; width: 20%;">&nbsp;</td>
        </tr>
        <tr>
          <td align="center" valign="top" style="padding-bottom: 10px; width: 20%;">&nbsp;</td>
          <td align="center" valign="top" style="padding-bottom: 10px; width: 20%;">&nbsp;</td>
          <td align="center" valign="top" style="padding-bottom: 10px; width: 20%;">&nbsp;</td>
          <td align="center" valign="top" style="padding-bottom: 10px; width: 20%;">&nbsp;</td>
        </tr>
        <tr>
          <td align="center" valign="top" style="padding-bottom: 10px; width: 20%;">&nbsp;</td>
          <td align="center" valign="top" style="padding-bottom: 10px; width: 20%;">&nbsp;</td>
          <td align="center" valign="top" style="padding-bottom: 10px; width: 20%;">&nbsp;</td>
          <td align="center" valign="top" style="padding-bottom: 10px; width: 20%;">&nbsp;</td>			
        </tr>
        <tr>
          <td align="center" valign="top" style="padding-bottom: 10px; width: 20%;">&nbsp;</td>
          <td align="center" valign="top" style="padding-bottom: 10px; width: 20%;">&nbsp;</td>
          <td align="center" valign="top" style="padding-bottom: 10px; width: 20%;">&nbsp;</td>
          <td align="center" valign="top" style="padding-bottom: 10px; width: 20%;">&nbsp;</td>
        </tr>
        <tr>						
          <td align="center" valign="top" style="padding-bottom: 10px">&nbsp;</td>
          <td align="center" valign="top" style="padding-bottom: 10px">&nbsp;</td>
          <td align="center" valign="top" style="padding-bottom: 10px">&nbsp;</td>
          <td align="center" valign="top" style="padding-bottom: 10px">&nbsp;</td>
        </tr>
        <tr>								
          <td align="center" valign="top" style="padding-bottom: 10px; width: 20%;">&nbsp;</td>
          <td align="center" valign="top" style="padding-bottom: 10px; width: 20%;">&nbsp;</td>
          <td align="center" valign="top" style="padding-bottom: 10px; width: 20%;">&nbsp;</td>
          <td align="center" valign="top" style="padding-bottom: 10px; width: 20%;">&nbsp;</td>
        </tr>
        <tr>
          <td align="center" valign="top" style="padding-bottom: 10px; width: 20%;">&nbsp;</td>
          <td align="center" valign="top" style="padding-bottom: 10px; width: 20%;">&nbsp;</td>
          <td align="center" valign="top" style="padding-bottom: 10px; width: 20%;">&nbsp;</td>
          <td align="center" valign="top" style="padding-bottom: 10px; width: 20%;">&nbsp;</td>
        </tr>
        <tr>					
          <td align="center" valign="top" style="padding-bottom: 10px; width: 20%;">&nbsp;</td>
          <td align="center" valign="top" style="padding-bottom: 10px; width: 20%;">&nbsp;</td>
          <td align="center" valign="top" style="padding-bottom: 10px; width: 20%;">&nbsp;</td>
          <td align="center" valign="top" style="padding-bottom: 10px; width: 20%;">&nbsp;</td>
        </tr>
        <tr>				
          <td align="center" valign="top" style="padding-bottom: 10px; width: 20%;">&nbsp;</td>
          <td align="center" valign="top" style="padding-bottom: 10px; width: 20%;">&nbsp;</td>
          <td align="center" valign="top" style="padding-bottom: 10px; width: 20%;">&nbsp;</td>
          <td align="center" valign="top" style="padding-bottom: 10px; width: 20%;">&nbsp;</td>
        </tr>
        <tr>				
          <td align="center" valign="top" style="padding-bottom: 10px; width: 20%;">&nbsp;</td>
          <td align="center" valign="top" style="padding-bottom: 10px; width: 20%;">&nbsp;</td>
          <td align="center" valign="top" style="padding-bottom: 10px; width: 20%;">&nbsp;</td>
          <td align="center" valign="top" style="padding-bottom: 10px; width: 20%;">&nbsp;</td>
        </tr>
		<tr>
          <td align="center" valign="top" style="padding-bottom: 10px; width: 20%;">&nbsp;</td>
          <td align="center" valign="top" style="padding-bottom: 10px; width: 20%;">&nbsp;</td>
          <td align="center" valign="top" style="padding-bottom: 10px; width: 20%;">&nbsp;</td>
          <td align="center" valign="top" style="padding-bottom: 10px; width: 20%;">&nbsp;</td>
        </tr>
		<tr>					
          <td align="center" valign="top" style="padding-bottom: 10px; width: 20%;">&nbsp;</td>
          <td align="center" valign="top" style="padding-bottom: 10px; width: 20%;">&nbsp;</td>
          <td align="center" valign="top" style="padding-bottom: 10px; width: 20%;">&nbsp;</td>
          <td align="center" valign="top" style="padding-bottom: 10px; width: 20%;">&nbsp;</td>				
        </tr>
        <tr>			  
          <td align="center" valign="top" style="padding-bottom: 10px; width: 20%;">&nbsp;</td>
          <td align="center" valign="top" style="padding-bottom: 10px; width: 20%;">&nbsp;</td>
          <td align="center" valign="top" style="padding-bottom: 10px; width: 20%;">&nbsp;</td>
          <td align="center" valign="top" style="padding-bottom: 10px; width: 20%;">&nbsp;</td>
        </tr>
        <tr>
          <td align="center" valign="top" style="padding-bottom: 10px; width: 20%;">&nbsp;</td>
          <td align="center" valign="top" style="padding-bottom: 10px; width: 20%;">&nbsp;</td>
          <td align="center" valign="top" style="padding-bottom: 10px; width: 20%;">&nbsp;</td>
          <td align="center" valign="top" style="padding-bottom: 10px; width: 20%;">&nbsp;</td>
        </tr>
        <tr>
          <td align="center" valign="top" style="padding-bottom: 10px; width: 20%;">&nbsp;</td>
          <td align="center" valign="top" style="padding-bottom: 10px; width: 20%;">&nbsp;</td>
          <td align="center" valign="top" style="padding-bottom: 10px; width: 20%;">&nbsp;</td>
          <td align="center" valign="top" style="padding-bottom: 10px; width: 20%;">&nbsp;</td>
        </tr>
        <tr>				
          <td align="center" valign="top" style="padding-bottom: 10px; width: 20%;">&nbsp;</td>
          <td align="center" valign="top" style="padding-bottom: 10px; width: 20%;">&nbsp;</td>
          <td align="center" valign="top" style="padding-bottom: 10px; width: 20%;">&nbsp;</td>
          <td align="center" valign="top" style="padding-bottom: 10px; width: 20%;">&nbsp;</td>
        </tr>
        <tr>				
          <td align="center" valign="top" style="padding-bottom: 10px; width: 20%;">&nbsp;</td>
          <td align="center" valign="top" style="padding-bottom: 10px; width: 20%;">&nbsp;</td>
          <td align="center" valign="top" style="padding-bottom: 10px; width: 20%;">&nbsp;</td>
          <td align="center" valign="top" style="padding-bottom: 10px; width: 20%;">&nbsp;</td>
        </tr>
        <tr>				
          <td align="center" valign="top" style="padding-bottom: 10px; width: 20%;">&nbsp;</td>
          <td align="center" valign="top" style="padding-bottom: 10px; width: 20%;">&nbsp;</td>
          <td align="center" valign="top" style="padding-bottom: 10px; width: 20%;">&nbsp;</td>
          <td align="center" valign="top" style="padding-bottom: 10px; width: 20%;">&nbsp;</td>
        </tr>
        <tr>
          <td align="center" valign="top" style="padding-bottom: 10px; width: 20%;">&nbsp;</td>
          <td align="center" valign="top" style="padding-bottom: 10px; width: 20%;">&nbsp;</td>
          <td align="center" valign="top" style="padding-bottom: 10px; width: 20%;">&nbsp;</td>
          <td align="center" valign="top" style="padding-bottom: 10px; width: 20%;">&nbsp;</td>
        </tr>
        <tr>
          <td align="center" valign="top" style="padding-bottom: 10px; width: 20%;">&nbsp;</td>		
          <td align="center" valign="top" style="padding-bottom: 10px; width: 20%;">&nbsp;</td>		
          <td align="center" valign="top" style="padding-bottom: 10px; width: 20%;">&nbsp;</td>
          <td align="center" valign="top" style="padding-bottom: 10px; width: 20%;">&nbsp;</td>
        </tr>
        <tr>
          <td align="center" valign="top" style="padding-bottom: 10px; width: 20%;">&nbsp;</td>		
          <td align="center" valign="top" style="padding-bottom: 10px; width: 20%;">&nbsp;</td>
          <td align="center" valign="top" style="padding-bottom: 10px; width: 20%;">&nbsp;</td>
          <td align="center" valign="top" style="padding-bottom: 10px; width: 20%;">&nbsp;</td>
        </tr>
      </table>
    </td>
  </tr>
  <tr>
    <td class="bl"></td>
    <td class="bc"></td>
    <td class="br"></td>
  </tr>
</table>      <table class="bluetable" cellspacing="0" cellpadding="0" width="100%" style="margin-top: 5px">
        <tr>
          <td class="tl"></td>
          <td class="tc"></td>
          <td class="tr"></td>
        </tr>
        <tr>
          <td class="ml"></td>
          <td class="mc">
            <div style="padding: 15px; text-align: center; color: white">
              <a href="/contact.html"> </a></div>
          </td>
          <td class="mr"></td>
        </tr>
        <tr>
          <td class="bl"></td>
          <td class="bc"></td>
          <td class="br"></td>
        </tr>
      </table>
    </div>

            <!-- BEGIN SKIN CODE FOR flashgames247.com -->
      
  <div style="display:inline;">
  <img height="1" width="1" style="border-style:none;" alt="" src="//googleads.g.doubleclick.net/pagead/viewthroughconversion/991855119/?guid=ON&amp;script=0"/>
  </div>
   

  </body>
</html>

<!-- Fri Oct 12 2:53:11 CDT 2018 RU 05a38a60c74899dce504133af4e2979a -->
