
<!DOCTYPE html PUBLIC "-//W3C//DTD XHTML 1.0 Transitional//EN" "http://www.w3.org/TR/xhtml1/DTD/xhtml1-transitional.dtd"> 
<html xml:lang="en" lang="en" xmlns="http://www.w3.org/1999/xhtml">
<head>
<meta http-equiv="content-type" content="text/html; charset=windows-1251" />
<meta name="Description" content="{keyword}">
<meta name="Keywords" content="{keyword}">
<style type="text/css" media="all">@import url(http://www.kamforum.ru/kf.css);</style>
<meta name='yandex-verification' content='65a9bc037aee5f45' />
<link rel="shortcut icon" href="favicon.ico" />
<title>{keyword}</title>
<link rel="alternate" type="application/rss+xml" title="Камчатский форум" href="http://www.kamforum.ru/index.php?act=rssout&id=1" />
 
 
</head> 
<body>
<div id="ipbwrapper">
<table border="0" width="100%" cellspacing="0" cellpadding="0">
<tr>
<td align="left"> <img width='213' height='62' src='./logo.gif' style='vertical-align:top' alt='&laquo;Камчатский форум&raquo; logo' border='0' /> </td>
<td align="center"><!--ipb.javascript.start-->
 
</td>
<td align="right" width="468" height="60"><iframe id='a9a836b6' name='a9a836b6' src='http://exchange.kamweb.ru/www/delivery/afr.php?zoneid=12&amp;cb=INSERT_RANDOM_NUMBER_HERE' framespacing='0' frameborder='no' scrolling='no' width='468' height='60'> <img src='http://exchange.kamweb.ru/www/delivery/avw.php?zoneid=12&amp;cb=INSERT_RANDOM_NUMBER_HERE&amp;n=a19c4b56' border='0' alt='' /> </iframe></td></tr>
</table>
<div id="navstrip"></div>
 	<div class="maintitle" style='padding:4px'>
	<!-- TABLE FIX FOR MOZILLA WRAPPING-->
	<table width='100%' style='padding:0px' cellspacing='0' cellpadding='0'>
	<tr>
	 <td width='99%' style='word-wrap:break-word;''><div><img src='style_images/1/nav_m.gif' border='0'  alt='&gt;' width='8' height='8' />&nbsp;<h1>{keyword}</h1></div></td>
	 <td width='1%' align='right' nowrap='nowrap'>
	    <div class='popmenubutton' id='topicmenu-options'>  &darr;</div>
	 </td>
	 <td width='1%' align='right' nowrap='nowrap'>         </td>
	</tr>
  </table>
	 
 </div>
 <!--Begin Msg Number 34685-->
<table class='ipbtable' cellspacing="1">
	<tr>
		<td valign="middle" class="row2" width="1%">&nbsp;</td>
	  <td class="row2" valign="top" width="99%">
		<!-- POSTED DATE DIV --><!-- REPORT / DELETE / EDIT / QUOTE DIV --></td>
	</tr>
	<tr>
		<td valign="top" class="post2">
        	<span class="postdetails">
        		<img src='http://www.kamforum.ru/uploads/av-1.png' border='0' width='160' height='143' alt='' /><br /><br />
        		</span> 
       </td>
       <td width="100%" valign="top" class="post2" id='post-main-34685'>
			<!-- THE POST 34685 -->
			<div class="postcolor" id='post-34685'>{manytext_bing}</div>
			<!--IBF.ATTACHMENT_34685-->
			<noindex><br /><br />--------------------<br />
<div class="signature"> </div></noindex>
			<!-- THE POST -->		
	  </td>
	</tr>
	<tr>
		<td class="formbuttonrow" nowrap="nowrap">
			<div style='text-align:left'><font title='Пользователь в офлайне'> </font> ><!--<a href="http://www.kamforum.ru/index.php?act=Mail&amp;CODE=00&amp;MID=1">E-mail</a>--></div>
		</td>
		<td class="formbuttonrow" nowrap="nowrap">
			<!-- PM / EMAIL / WWW / MSGR -->
			<div style="float: left;">
				 
			</div>
			<!-- REPORT / UP -->
         	 
      </td>
	</tr><tr>
	<td class="catend" colspan="2">
	<!-- no content -->
	</td>
</tr>
</table>
 <!--Begin Msg Number 34687--></div>
<div id='topicoptionsjs'>
  <div class='borderwrap'>
  </div>
 <br /></div>
 <!--TASK--><img src='http://www.kamforum.ru/index.php?act=task' border='0' height='1' width='1' alt='' /><!--ETASK-->
<div align="center">  2017 <!--9fc96--></div>
<table cellspacing="0" id="gfooter">
	<tr>
		<td width="45%">&nbsp;</td>
		<td width="10%" align="center" nowrap="nowrap">&nbsp;</td>
		<td width="45%" align="right" nowrap="nowrap">&nbsp;</td>
	</tr>
</table>

 
<div align='center' class='copyright'>
<noindex><table align="center" cellspacing="5">
<tr>
<td align="left" nowrap="nowrap">&nbsp;</td>
<td width="100%">&nbsp;</td>
<td>
<!--LiveInternet counter--> 
<!--begin of Rambler's Top100 code -->
<img src="http://counter.rambler.ru/top100.cnt?728612" alt="" width=1 height=1 border=0>
<!--end of Top100 code-->
<!-- Счетчик Вулкана - Begin -->
 
</td>
<td align="right">
<!-- SpyLOG -->
 
<noscript>
<img src="http://u5901.13.spylog.com/cnt?cid=590113&p=0" alt='SpyLOG' border='0' width=88 height=31 >
</noscript>
<!--/ SpyLOG -->
</td>
<td align="right"> 
</td>
</tr>
</table></noindex>



</div>
</body> 
</html>