
<!DOCTYPE html>
<html>

<head>









<title>{keyword}</title>



<meta http-equiv="Content-Type" content="text/html; charset=utf-8">
<meta Name="keywords"    Content="{keyword}">
<meta Name="description" Content="{keyword}">


<link href="//www.databaseusers.com/css/style.css" type="text/css" rel="stylesheet" />
</head>

<body>

<div id="page_wrapper">


<!------------------------------------------------------banner------------------------------------------------------>











	<div id="header_wrapper">

		<div id="header">

		<h1> <font color="#FFDF8C">{keyword}</font> </h1>
		<h2>&nbsp; </h2>

		</div>

	</div>
<!------------------------------------------------------banner------------------------------------------------------>
<div style="height: 5px;"></div>

<!-----------------------------------------------------content----------------------------------------------------->







<div id="content"><div id="contentbody">

	<h3>&nbsp; </h3>

	<div class='featurebox_center'>
	
	</div>
	
	<br>
	<h4>&nbsp; </h4>
	<br>




	
			<div class='featurebox_center_content'>
				
 
<ins class="adsbygoogle"
     style="display:block; text-align:center;"
     data-ad-layout="in-article"
     data-ad-format="fluid"
     data-ad-client="ca-pub-4875541507549899"
     data-ad-slot="5575561822"></ins>
 
				
				<pre style="white-space: pre-wrap;word-wrap: break-word;">{manytext_bing}</pre>
				
			</div>

	
			<div class='featurebox_center_content'>
				
				<pre style="white-space: pre-wrap;word-wrap: break-word;">
a<br>

 
<!-- crawl right 160 600 -->
<ins class="adsbygoogle"
     style="display:inline-block;width:160px;height:600px"
     data-ad-client="ca-pub-4875541507549899"
     data-ad-slot="8147667162"></ins>
 

                </pre>
			</div>
</div>
</div>
<!------------------------------------------------------right------------------------------------------------------>

<!-----------------------------------------------------footer----------------------------------------------------->






<div id="footer">
Copyright @ 2017 www.databaseusers.com , All Rights Reserved
</div>
<!-----------------------------------------------------footer----------------------------------------------------->

</div>

</body>

</html>

